<?xml version="1.0" encoding="utf-8"?>
<!-- Generator: Adobe Illustrator 19.0.0, SVG Export Plug-In . SVG Version: 6.00 Build 0)  -->
<svg version="1.1" class="gendra--svg" xmlns="http://www.w3.org/2000/svg" xmlns:xlink="http://www.w3.org/1999/xlink" x="0px" y="0px"
	 viewBox="205 473.5 194 139.4" style="enable-background:new 205 473.5 194 139.4;" xml:space="preserve">
<style type="text/css">
	.st0{fill:#E35A2D;stroke:#340000;stroke-width:2;stroke-miterlimit:10;}
	.st1{fill:none;stroke:#340000;stroke-width:2;stroke-miterlimit:10;}
	.st2{fill:#FFFFFF;stroke:#340000;stroke-width:2;stroke-linecap:round;stroke-linejoin:round;stroke-miterlimit:10;}
	.st3{fill:#1C2F51;}
</style>
<path id="XMLID_358_" class="st0" d="M265.8,501.3h67v71v12h-59.1c0,0-7.9,0.2-7.9-5.3L265.8,501.3L265.8,501.3z"/>
<path id="XMLID_357_" class="st0" d="M279.7,572.3h65c0,0,1.4,11-5.1,12h-65.9C273.7,584.3,281.7,585.3,279.7,572.3z"/>
<line id="XMLID_360_" class="st1" x1="275.8" y1="511.3" x2="297.8" y2="511.3"/>
<line id="XMLID_361_" class="st1" x1="275.8" y1="520.3" x2="297.8" y2="520.3"/>
<line id="XMLID_380_" class="st1" x1="275.8" y1="561.3" x2="321.8" y2="561.3"/>
<line id="XMLID_383_" class="st1" x1="275.8" y1="567.3" x2="321.8" y2="567.3"/>
<rect id="XMLID_336_" x="275.8" y="527.2" class="st2" width="11" height="26.6"/>
<rect id="XMLID_386_" x="292.2" y="539.5" class="st2" width="11" height="14.4"/>
<rect id="XMLID_387_" x="307.9" y="546.7" class="st2" width="11" height="7.2"/>
<path id="XMLID_385_" class="st2" d="M346.3,516.3c0,11.9-9.7,21.5-21.6,21.5c-11.9,0-21.4-9.6-21.4-21.5c0-11.9,9.6-21.5,21.6-21.5
	v21.5H346.3z"/>
<path id="XMLID_1507_" class="st0" d="M329.8,508.3h16c0,0-0.7-13.6-15.5-15.3L329.8,508.3z"/>
<rect x="1229.7" y="-264" class="st3" width="655.8" height="350.6"/>
</svg>
