<?xml version="1.0" encoding="utf-8"?>
<!-- Generator: Adobe Illustrator 19.0.0, SVG Export Plug-In . SVG Version: 6.00 Build 0)  -->
<svg version="1.1" class="gendra--svg" xmlns="http://www.w3.org/2000/svg" xmlns:xlink="http://www.w3.org/1999/xlink" x="100px" y="100px"
	 viewBox="205 473.5 194 139.4" style="enable-background:new 205 473.5 194 139.4;" xml:space="preserve">
<style type="text/css">
	.st0{fill:#E35A2D;stroke:#340000;stroke-width:2;stroke-miterlimit:10;}
	.st1{fill:#FFFFFF;stroke:#340000;stroke-width:2;stroke-linecap:round;stroke-linejoin:round;stroke-miterlimit:10;}
	.st2{fill:none;stroke:#340000;stroke-width:2;stroke-linecap:round;stroke-linejoin:round;stroke-miterlimit:10;}
	.st3{fill:#E35A2D;stroke:#340000;stroke-width:2;stroke-linecap:round;stroke-linejoin:round;stroke-miterlimit:10;}
	.st4{fill:#1C2F51;}
</style>
<path id="XMLID_317_" class="st0" d="M330.7,498.4h-67v71v12h59c0,0,7.5,0.2,8-5.3V498.4z"/>
<path id="XMLID_318_" class="st0" d="M316.7,569.4h-65c0,0-1.4,11,5,12h66C322.7,581.4,314.8,582,316.7,569.4z"/>
<rect id="XMLID_288_" x="249.3" y="544.7" class="st1" width="52.4" height="13.7"/>
<line id="XMLID_321_" class="st2" x1="256.7" y1="549.4" x2="256.7" y2="558.4"/>
<line id="XMLID_344_" class="st2" x1="263.7" y1="549.4" x2="263.7" y2="558.4"/>
<line id="XMLID_323_" class="st2" x1="271.7" y1="549.4" x2="271.7" y2="558.4"/>
<line id="XMLID_327_" class="st2" x1="278.7" y1="549.4" x2="278.7" y2="558.4"/>
<line id="XMLID_329_" class="st2" x1="286.7" y1="549.4" x2="286.7" y2="558.4"/>
<line id="XMLID_332_" class="st2" x1="293.7" y1="549.4" x2="293.7" y2="558.4"/>
<polygon id="XMLID_333_" class="st1" points="296.7,532.6 336.7,493.6 336.7,532.4 "/>
<polygon id="XMLID_334_" class="st3" points="311.9,526.6 330.7,508.3 330.7,526.5 "/>
<path id="XMLID_319_" class="st1" d="M275.6,517.5c0,0,4.1-3.5,13.1-0.2v-29c0,0-6.9-5.1-13.3,0L275.6,517.5z"/>
<path id="XMLID_335_" class="st1" d="M282.1,527.9l-6.5-10.4c0,0,2.3-1.7,6.5-1.7c1.9,0,4.1,0.4,6.6,1.5L282.1,527.9z"/>
<line id="XMLID_337_" class="st2" x1="281.7" y1="493.4" x2="281.7" y2="515.4"/>
<path id="XMLID_343_" class="st2" d="M288.7,494.5c0,0-9.7-2-13.3,0"/>
<rect x="1229.7" y="-264" class="st4" width="655.8" height="350.6"/>
</svg>
