<?xml version="1.0" encoding="utf-8"?>
<!-- Generator: Adobe Illustrator 19.0.0, SVG Export Plug-In . SVG Version: 6.00 Build 0)  -->
<svg version="1.1" class="gendra--svg" xmlns="http://www.w3.org/2000/svg" xmlns:xlink="http://www.w3.org/1999/xlink" x="0px" y="0px"
	 viewBox="205 473.5 194 139.4" style="enable-background:new 205 473.5 194 139.4;" xml:space="preserve">
<style type="text/css">
	.st0{fill:#E35A2D;stroke:#340000;stroke-width:2;stroke-miterlimit:10;}
	.st1{fill:#FFFFFF;stroke:#340000;stroke-width:2;stroke-linecap:round;stroke-linejoin:round;stroke-miterlimit:10;}
	.st2{fill:none;stroke:#340000;stroke-width:2;stroke-linecap:round;stroke-linejoin:round;stroke-miterlimit:10;}
	.st3{fill:#E35A2D;stroke:#340000;stroke-width:2;stroke-linejoin:round;stroke-miterlimit:10;}
	.st4{fill:#1C2F51;}
</style>
<polygon id="XMLID_1515_" class="st0" points="272.6,507.1 272.6,497.1 320.6,497.1 320.6,520.1 "/>
<polygon id="XMLID_1511_" class="st1" points="302.6,515.1 326.6,515.1 326.6,582.1 311.6,582.1 "/>
<polygon id="XMLID_1510_" class="st1" points="259.6,534.1 259.6,507.1 293.6,507.1 307.6,520.1 307.6,544.1 307.6,554.1 
	269.6,554.1 "/>
<polyline id="XMLID_1508_" class="st2" points="293.6,507.1 293.6,520.1 307.6,520.1 "/>
<line id="XMLID_1512_" class="st2" x1="266.6" y1="520.1" x2="286.6" y2="520.1"/>
<line id="XMLID_1513_" class="st2" x1="266.6" y1="528.1" x2="300.6" y2="528.1"/>
<line id="XMLID_1514_" class="st2" x1="283.6" y1="536.1" x2="300.6" y2="536.1"/>
<path id="XMLID_1516_" class="st3" d="M327.5,544.2l5.1-0.2v41c-3,5.3-6.5,4-6.5,4c-6,0.2-8.1-5-8.1-5v-35c0.6-4.7-4.4-5-4.4-5h-32
	l-2.8-6.6c-0.3-3.2-4.6-3.1-4.6-3.1l-16.4,0.1c-2.6-0.9-4.3,3-4.3,3V584c0,0-0.8,5,4.9,5h68.1"/>
<rect x="1229.7" y="-264" class="st4" width="655.8" height="350.6"/>
</svg>
